<svg width="91" height="91" viewBox="0 0 91 91" fill="none" xmlns="http://www.w3.org/2000/svg">
<circle cx="45.5" cy="45.5" r="45.5" fill="#FFF0CC"/>
<path d="M40.3078 29.5988C35.6776 24.971 26.6168 24.4343 20.2033 24.4343C19.5391 24.4343 19 24.9733 19 25.6375C19 32.051 19.5343 41.1118 24.1645 45.7421C26.1186 47.6963 29.1148 48.5699 32.0845 48.5699C35.3117 48.5699 38.5101 47.5374 40.3078 45.7397C43.7564 42.2911 44.3894 33.6779 40.3078 29.5988ZM38.6064 44.0406C36.0313 46.6132 28.8814 47.0536 25.8684 44.0406C22.131 40.3033 21.4836 32.7105 21.4138 26.8481C27.2762 26.9179 34.869 27.5652 38.6063 31.3027C41.6194 34.3156 41.179 41.468 38.6064 44.0406Z" fill="#5E168A"/>
<path d="M70.7967 29.1945C64.3833 29.1945 55.3225 29.7287 50.6922 34.3589C46.6107 38.4381 47.2435 47.0512 50.6922 50.4999C52.4899 52.2952 55.6859 53.3276 58.9131 53.3276C61.8828 53.3276 64.8766 52.4564 66.8355 50.5023C71.4633 45.8721 72 36.8114 72 30.3978C72.0001 29.7336 71.461 29.1945 70.7967 29.1945ZM65.1293 48.7984C62.1163 51.8114 54.9639 51.371 52.3913 48.7984C49.8187 46.2258 49.3783 39.0734 52.3913 36.0604C56.1288 32.323 63.7214 31.6757 69.5838 31.6058C69.5141 37.4706 68.8667 45.0634 65.1293 48.7984Z" fill="#5E168A"/>
<path d="M62.1067 39.6102C61.8228 39.0061 61.0093 38.7992 60.4101 39.0783C51.1809 43.4173 46.6469 50.9836 44.5868 58.7616C42.0382 42.2236 34.6669 37.1819 31.5408 35.0425C31.1509 34.7753 30.8477 34.5804 30.6792 34.4143C30.21 33.9451 29.447 33.9451 28.9778 34.4143C28.5085 34.8836 28.5085 35.6465 28.9778 36.1158C29.216 36.3517 29.6275 36.6477 30.1834 37.0279C33.7067 39.4369 43.0658 45.8408 43.0658 71.3625C43.0658 72.0267 43.6049 72.5658 44.2691 72.5658C44.9334 72.5658 45.4725 72.0267 45.4725 71.365C45.4725 61.0529 48.2425 47.4581 61.4353 41.2588C61.4353 41.2564 61.6302 41.1649 61.6302 41.1649C62.2294 40.8808 62.3907 40.2118 62.1067 39.6102Z" fill="#5E168A"/>
</svg>
