<svg width="91" height="91" viewBox="0 0 91 91" fill="none" xmlns="http://www.w3.org/2000/svg">
<circle cx="45.5" cy="45.5" r="45.5" fill="#FFF0CC"/>
<path d="M59.3125 40.3583V32.8124C59.3125 25.1965 53.116 19 45.5 19C37.884 19 31.6875 25.1965 31.6875 32.8125V40.3584C29.265 40.8514 27.4374 42.9998 27.4374 45.5625V64.6875C27.4375 67.6157 29.8196 70 32.75 70H58.25C61.1804 70 63.5625 67.6157 63.5625 64.6875V45.5625C63.5625 42.9976 61.735 40.8514 59.3125 40.3583ZM33.8125 32.8125C33.8125 26.3674 39.0571 21.1251 45.5 21.1251C51.9429 21.1251 57.1875 26.3674 57.1875 32.8125V40.2501H55.0625V32.8125C55.0625 27.5404 50.7721 23.25 45.5 23.25C40.2279 23.25 35.9375 27.5404 35.9375 32.8125V40.2501H33.8125V32.8125ZM52.9375 32.8125V40.2501H38.0625V32.8125C38.0625 28.7112 41.3988 25.375 45.5 25.375C49.6012 25.375 52.9375 28.7112 52.9375 32.8125ZM61.4375 64.6875C61.4375 66.4449 60.0074 67.875 58.25 67.875H32.75C30.9926 67.875 29.5625 66.4449 29.5625 64.6875V45.5625C29.5625 43.8051 30.9926 42.375 32.75 42.375H58.25C60.0074 42.375 61.4375 43.8051 61.4375 45.5625V64.6875Z" fill="#5E168A"/>
<path d="M45.5 46.625C42.5696 46.625 40.1875 49.0092 40.1875 51.9375C40.1875 53.9562 41.3669 55.7901 43.1435 56.6784L42.3232 62.4138C42.2785 62.7177 42.3699 63.0279 42.5718 63.2596C42.7737 63.4912 43.067 63.625 43.375 63.625H47.6251C47.9332 63.625 48.2264 63.4891 48.4283 63.2574C48.6302 63.0258 48.7216 62.7176 48.677 62.4116L47.8567 56.6762C49.6332 55.7901 50.8126 53.9561 50.8126 51.9375C50.8125 49.0092 48.4304 46.625 45.5 46.625ZM46.3882 54.9784C45.8825 55.1272 45.5616 55.6266 45.636 56.1493L46.401 61.5001H44.5989L45.3639 56.1493C45.4404 55.6266 45.1174 55.1273 44.6117 54.9784C43.2369 54.5768 42.3125 53.3549 42.3125 51.9376C42.3125 50.1802 43.7426 48.7501 45.5 48.7501C47.2574 48.7501 48.6875 50.1802 48.6875 51.9376C48.6875 53.3549 47.7631 54.5768 46.3882 54.9784Z" fill="#5E168A"/>
</svg>
