<svg width="91" height="91" viewBox="0 0 91 91" fill="none" xmlns="http://www.w3.org/2000/svg">
<circle cx="45.5" cy="45.5" r="45.5" fill="#5E168A"/>
<rect x="15" y="19" width="60" height="60" fill="#5E168A"/>
<g clip-path="url(#clip0)">
<path d="M74.9929 43.7724C74.9521 43.3807 74.7007 43.0341 74.3383 42.8687L24.5118 20.2203C24.4734 20.2023 24.4325 20.2023 24.3918 20.1908C24.3262 20.1681 24.2605 20.1478 24.1925 20.1388C24.1244 20.1298 24.0611 20.1297 23.9931 20.132C23.9319 20.1366 23.8731 20.1411 23.812 20.1547C23.744 20.1683 23.6829 20.1887 23.6217 20.2137C23.5854 20.2296 23.547 20.2318 23.5107 20.25C23.4835 20.2636 23.4676 20.2862 23.4427 20.302C23.3929 20.3336 23.3499 20.3699 23.3068 20.4085C23.2457 20.4628 23.1913 20.5172 23.1438 20.5806C23.1302 20.5987 23.1098 20.6101 23.0962 20.6305C23.0803 20.6532 23.0782 20.6803 23.0645 20.7052C23.026 20.7754 22.9943 20.8479 22.9717 20.9272C22.9535 20.9792 22.9422 21.0314 22.9354 21.0857C22.9264 21.1536 22.9218 21.2216 22.9264 21.2919C22.9286 21.3575 22.9354 21.4232 22.9491 21.4866C22.9535 21.5161 22.9491 21.5455 22.9581 21.5749L36.5471 66.8718C36.6468 67.2047 36.8913 67.4742 37.2153 67.6011C37.3512 67.6531 37.4916 67.6803 37.632 67.6803C37.8314 67.6803 38.0285 67.6283 38.2028 67.5263L49.6152 60.8495L59.5285 69.6598C59.585 69.7095 59.653 69.7345 59.7141 69.773C59.764 69.8024 59.807 69.8386 59.8614 69.8614C59.9949 69.9157 60.1354 69.9451 60.2803 69.9451C60.4208 69.9451 60.5589 69.9135 60.6926 69.8614C60.7039 69.8569 60.7174 69.8546 60.7288 69.85C60.7583 69.8364 60.7809 69.8116 60.8081 69.7956C60.8149 69.7933 60.8194 69.7889 60.8239 69.7843C60.885 69.7503 60.9507 69.7276 61.0073 69.68C61.0231 69.6664 61.03 69.6483 61.0435 69.6347C61.0639 69.6167 61.082 69.6007 61.1002 69.5803C61.107 69.5713 61.1183 69.5691 61.1274 69.56C61.1501 69.5351 61.1569 69.501 61.1773 69.4739C61.2203 69.415 61.2611 69.3584 61.2928 69.295C61.3064 69.2656 61.32 69.2406 61.3313 69.2112C61.3449 69.1728 61.354 69.1341 61.363 69.0957C61.3811 69.0233 61.3925 68.953 61.397 68.8783C61.3992 68.8534 61.4105 68.8329 61.4105 68.8081V54.6527L74.5467 44.8006C74.8661 44.5606 75.0382 44.1711 74.9929 43.7724ZM38.3025 64.8423L26.7631 26.3808L51.7194 56.9923L38.3025 64.8423ZM51.6719 59.6444L52.9968 58.8698L55.504 63.0508L51.6719 59.6444ZM59.1504 64.7177H59.1481L54.5255 57.0127C54.4847 56.8587 54.4123 56.7115 54.3104 56.587L34.4092 32.1743L59.1504 54.5962V64.7177ZM60.3485 52.6257L30.1808 25.2845L71.6614 44.1393L60.3485 52.6257Z" fill="white"/>
</g>
<defs>
<clipPath id="clip0">
<rect x="22.9246" y="19" width="52.0755" height="52.0755" fill="white"/>
</clipPath>
</defs>
</svg>
